Section 11 Real life lm() example | I forgot the title
…
11.5.1 Anova for categorical variable makes

data.df %>% 
  group_by(make) %>% 
  summarise(count=n(),
            mean_price=mean(price),
            mean_mileage=mean(mileage),
            mean_age=mean(age),
            mean_price=mean(price),
            mean_owners=mean(owners),
            mean_engine=mean(engine.size)) %>% 
  arrange(desc(count))

## # A tibble: 43 x 7
##    make       count mean_price mean_mileage mean_age mean_owners mean_engine
##    <fct>      <int>      <dbl>        <dbl>    <dbl>       <dbl>       <dbl>
##  1 Vauxhall     715      6188.       44018.     6.09        2.36        1.42
##  2 Ford         286      6502        52934.     7.21        2.46        1.34
##  3 Nissan       269      8673.       39307.     5.90        2.31        1.33
##  4 Hyundai      250      8521        31668.     4.35        2.44        1.30
##  5 Volkswagen   208      5318.       74174.    10.4         3.03        1.51
##  6 Toyota       199      6305.       48149.     8.34        2.10        1.55
##  7 Peugeot      193      6488.       43657.     6.38        2.41        1.39
##  8 Citroen      165      4882.       53608.     8.18        2.40        1.44
##  9 Renault      164      6506.       41006.     6.68        2.37        1.34
## 10 SEAT         156      6342.       53444.     6.63        2.25        1.40
## # … with 33 more rows
…
